@startuml
    title 히스토리 계정 삭제

    actor USER #blue
    participant "Homeportal" as a
    participant "통합 페어링 서버" as b

    USER -> a: 히스토리 리스트 내 계정 삭제 버튼 선택

    a -> b : 페어링 삭제 요청(stb_remove_pairing_history)
    b --> a: 페어링 삭제 성공
    a -> b: 페어링 히스토리 요청(stb_get_pairing_history_list)
    b --> a: return 페어링 히스토리 리스트
    a --> a: 리스트 갱신
@enduml
