@startuml
    title 장르별 편성표

    actor USER #blue
    participant "Home Portal" as a
    participant "WebMW" as b
    participant "Image Server" as c

    USER -> a: 장르별 편성표 실행
    alt focus 채널
        a -> b: changeChannel(pip_ch)
        activate b
        b --> a: tune pip_ch
        deactivate b
    else
        par
            a -> c: GET CH_[SID].png\n(http://image.ktipmedia.co.kr/channel/CH_739.png)
            activate c
            c --> a: response image
            deactivate c
        end
    end
    a -> USER: 장르별 편성표 노출
    ...
    USER -> a: 확인 키
    a -> a: 장르별 편성표 종료
    a -> b: changeChannel(select_channel)
    activate b
    b --> USER: tune channel
    deactivate b
@enduml