@startuml
    title 오늘의 채널 가이드

    actor USER #blue
    box "Home Portal" #lightblue
        participant "ChannelGuide" as a
        participant "SubHomeDataManager" as e
    end box
    participant "Browser" as c
    participant "AMOC" as d

    USER -> a: 오늘의 채널 가이드
    activate a
    a -> e: getHomeMenuData()
    activate e
    e --> a: return 편성된 추천 데이터
    deactivate e
    a -> d: POST checkMyContentW3\n(contsIdList, menu.id, "H", "01", "A", "N")
    activate d
    note over a, d
        contentIdList는 CON_ID1|CON_ID2|CON_ID3|... 형태로 4개를 한꺼번에 조회한다.
    end note
    d --> a: response data
    deactivate d
    a --> USER: 오늘의 채널 가이드
    deactivate a
@enduml