@startuml
    title 업셀링 & 부가상품 관련 처리

    participant "CAS" as a
    participant "Home Portal" as b
    participant "AMOC" as c

    a -> b: 미가입 채널
    b -> c: POST channel/channel-info\n(saId, serviceId, buyTypeYn)
    note over b, c
        현재 buyTypeYn 값을 항상 "Y"로 주고 있음 (이유가 뭘까?)
    end note
    activate c
    c --> b: response data
    deactivate c
    b -> b: parsing data
    activate b
    deactivate b
    alt response.upSelYn === "Y"
        b -> b: 업셀링 채널로 처리
        activate b
        deactivate b
        b -> c: POST product/info\n(saId, response.upSelId, buyTypeYn)
        activate c
        c --> b: response data
        deactivate c
    else response.addPkgYn === "Y"
        b -> b: 부가상품 관련 처리
        activate b
        deactivate b
        loop response.addPkgId.length
            b -> c: POST product/info\n(saId, response.addPkgId, buyTypeYn)
            note over b, c
                현재 buyTypeYn 값을 항상 "Y"로 주고 있음 (이유가 뭘까?)
            end note
            activate c
            c --> b: response data
            deactivate c
        end loop
    end if
@enduml

@startuml
    title 채널 온스크린 가입

    actor USER #blue
    box "STB" #lightblue
        participant "CAS" as a
        participant "Home Portal" as b
        participant "Web MW" as c
    end box
    participant "AMOC" as d
    participant "HDS" as e

    USER -> b: 가입 하기 선택
    b -> d: POST channel/channel-info\n(saId, serviceId, buyTypeYn)
    activate d
    d --> b: response data
    deactivate d

    alt response.addPkgYn === "Y"
        note over USER, c
            채널 온스크린 가입 처리
        end note
        loop response.addPkgId.length
            b -> d: POST product/info\n(saId, response.addPkgId, buyTypeYn)
            activate d
            d --> b: response data
            deactivate d
        end loop
        alt pkgId.length > 1
            note over USER, b
                부가 상품이 2개 이상 존재하는 경우
                상품 선택 팝업을 먼저 보여준다.
            end note
            b --> USER: 부가상품 선택 팝업
            USER -> b: 상품 선택
        end if
    end if
    alt response.contractYn === "Y"
        b --> USER: 상품 가입 팝업(약정 선택 단계)
        USER -> b: 약정 선택
        b --> USER: 상품 가입 팝업(약관 동의 단계)
        USER -> b: 약관 동의
        b --> USER: 상품 가입 팝업(구매 인증 단계)
        USER -> b: 구매PIN 입력
        b -> e: onlineChVodMSVCbPIN()
        activate e
        e --> b: response result
        deactivate e
        b --> USER: 가입 완료 팝업
    else
    end if
@enduml

@startuml
    title OTS 채널 온스크린 가입

    actor USER #blue
    box "STB" #lightblue
        participant "CAS" as a
        participant "Home Portal" as b
        participant "Web MW" as c
    end box
    participant "AMOC" as d
    participant "HDS" as e
@enduml