@startuml
    title 예약 알림 팝업 노출 시나리오

    participant "Web MW" as a
    participant "Reservation Manager" as b
    participant "Reservation Alaram Popup" as c

    a -> b: openRemindAlarm(prog)
    alt 시청시간제한 || 데이터방송 실행 상태
        b --> a: return
    end
    alt 키즈모드 && prog.rating >= PR
        b --> a: return
    end
    alt STANDBY 상태
        alt 키즈모드 === true
            b --> a: return
        end
        alt 자동켜짐 ON
            b --> a: changeChannel(prog.channel)
            b --> a: setPowerState(POWER_MODE.ON)
        end
    else
        b -> c: activateLayer(AlarmPopup)
        activate c
        alt PIP 사용중
            c -> c: 일반 예약 알림 팝업
            c --> b: return
        else
            c -> c: PIP 예약 알림 팝업
            c --> b: return
            deactivate c
        end
    end
@enduml

@startuml
    title 예약 채널 이동 시나리오

    box "Home Portal" #lightblue
        participant "Reservation Alarm Popup" as a
        participant "Reservation Manager" as b
        participant "Layer Manager" as c
        participant "VOD Module" as d
    end box
    participant "Web MW" as e

    -> a: 바로보기 or 자동 전환
    a -> c: deactiatelayer(onlyTarget, id)
    activate c
    c -> c: remove target layer
    c --> a: return
    deactivate c
    a -> b: call callback()
    activate b
    alt VOD 시청 상태
        b -> d: execute("stopVodWithEndPopup")\n(withPopup: false, notChangeService: false, channelObj: ch)
        activate d
        d -> d: VOD 종료 팝업 실행
        d --> b: return
        deactivate d
        b --> a: return
    else
        b -> c: clearNormalLayerExceptTarget(targt_id)
        activate c
        c -> c: remove layer except target_id
        c --> b: return
        deactivate c
        b -> e: changeChannel(ch)
        b --> a: return
        deactivate b
    end
@enduml