@startuml
    title 시작 채널

    participant "Home Portal" as a
    participant "Browser" as c
    participant "Web MW" as b

    == 관련 데이터 가져오기 ==
    a -> c: read local storage value(CUG_INFO)
    activate c
    c --> a: return value
    deactivate c
    a -> b: get Configuration Text("lcw_booting_support")\n(LCW 지원하는 STB인지 확인하기 위한 값)
    activate b
    b --> a: return value
    deactivate b
    == 설정값 저장하기 ==
    alt 가이드 채널
        a -> b: set Configuration Text("default_channel", "")
        activate b
        b --> a: return
        deactivate b
    else
        alt LCW 지원하는 STB && 이전 시청 채널을 선택한 경우
            a -> b: set Configuration Text("default_channel", "LCW")
            activate b
            b --> a: return
            deactivate b
        else
            a -> b: set Configuration Text("default_channel", cugList[index].linkInfo)
            activate b
            b --> a: return
            deactivate b
        end
    end
@enduml