@startuml
    title 긴급메시지 알림 설정 (OTS STB Only)

    participant "Home Portal" as a
    participant "Web MW" as b


    a -> b: Set Configuration Text("bmailNotify.ots", value)
    activate b
    b --> a: return
    deactivate b
@enduml