@startuml
    title getCustEnv 호출 시나리오

    participant "단말" as a
    participant "Home Portal" as b
    participant "AMOC" as c

    a -> b: 부팅 후 홈포털에서 처리하는 첫키
    b -> b: 첫키 입력 flag set (processing_first_key = true)
    b -> c: POST getCustEnv(SAID)
    activate c
    c --> b: response data
    deactivate c
    == 서브홈 데이터 업데이트 된 경우 ==
    a -> b: w3_subhome.js update
    b -> b: requestCustEnv 플래그 셋팅 (requestCustEnv = true)
    alt requestCustEnv == true 이고 각 서브홈에 표시할 데이터를 각 모듈이 요청한 경우
        b -> c: POST getCustEnv(SAID)
        activate c
        c --> b: response data
        deactivate c
        b -> b: set requestCustEnv === false
    end
    == 채널 정보 업데이트 요청 ==
    a -> b: postMessage(REQUEST_CHANNEL_UPDATE)
    b -> c: POST getCustEnv(SAID)
    activate c
    c --> b: response data
    deactivate c
    == 음성검색을 통해 검색 화면이 실행된 경우 ==
    alt product_id === null
        b -> c: POST getCustEnv(SAID)
        activate c
        c --> b: response data
        deactivate c
    end
@enduml

/* 아래 내용은 BIZ 상품 추가시 적용해야 함.
    == watchContent, watchContentForced ==
    a -> b: postMessage(watchContent)
    alt VOD가 무료가 아니고 processing_first_key == false 이면 seamless 구매 이력 체크를 위해
        b -> c: POST getCustEnv(SAID)
        activate c
        c --> b: response data
        deactivate c
    end
*/