@startuml
    title 키즈모드 부팅 시 성인 인증 화면 처리(비밀번호 3회 오류)

    actor USER #blue
    participant "Kids Module" as a
    participant "KidsModeManager" as c
    participant "AuthManager" as b
    participant "SettingMenuManager" as d

    USER -> a: PIN 입력
    a -> b: 성인PIN 인증
    alt 3회 오류
        b -> c: call isKidsModeAdultAuthPopupOpened()
        activate c
        c -> a: call execute(\n{method: "isKidsPopupOpened"});
        activate a
        a --> c: return boolean value
        deactivate a
        c --> b: return boolean value
        deactivate c
        alt return value === true
            b -> b: set isSystemPriority to true
            activate b
            deactivate b
        end
        b -> USER: 3회인증 오류 팝업
        deactivate c
    end
    USER -> b: 비밀번호 변경/초기화 선택
    b -> c: call isKidsModeAdultAuthPopupOpened()
    activate c
    c -> a: call execute(\n{method: "isKidsPopupOpened"});
    activate a
    a --> c: return boolean value
    deactivate a
    c --> b: return boolean value
    deactivate c
    alt return value === true
        b -> b: set isSystemPriority to true
        activate b
        deactivate b
        b -> d: call activateSettingMenuByMenuID(\n{isSystemPrority})
        activate d
    end
    d -> USER: 비밀번호 변경/초기화 화면
    deactivate d
@enduml